{
    "$schema": "https://themost-framework.github.io/themost/models/2018/2/schema.json",
    "@id": "https://themost.io/schemas/ActionStatusArticle",
    "name": "ActionStatusArticle",
    "title": "ActionStatusArticle",
    "hidden": false,
    "sealed": false,
    "abstract": false,
    "implements": "Article",
    "version": "1.0",
    "fields": [
        {
            "@id": "http://schema.org/actionStatus",
            "name": "actionStatus",
            "title": "actionStatus",
            "description": "Indicates the current disposition of the Action.",
            "type": "ActionStatusType",
            "value": "javascript:return { alternateName:'ActiveActionStatus' };",
            "expandable": true
        },
        {
            "@id": "http://schema.org/inLanguage",
            "name": "inLanguage",
            "title": "inLanguage",
            "type": "Text",
            "size": 2
        },
        {

            "@id": "http://schema.org/actionType",
            "name": "actionType",
            "title": "actionType",
            "type": "Text",
            "size": 100
        }
    ],
    "eventListeners": [
    ],
    "privileges": [
        {
            "mask": 15,
            "type": "global"
        },
        {
            "mask": 1,
            "type": "global",
            "account": "*"
        },
        {
            "mask": 2,
            "type": "global",
            "account": "Registrar"
        },
        {
            "mask": 12,
            "type": "self",
            "filter": "createdBy eq me() or modifiedBy eq me()",
            "account": "Registrar"
        },
        {
            "mask": 15,
            "type": "global",
            "account": "Administrators"
        }
    ]
}
