{
  "$schema": "https://themost-framework.github.io/themost/models/2018/2/schema.json",
  "@id": "https://universis.io/schemas/CourseClassSectionInstructor",
  "name": "CourseClassSectionInstructor",
  "title": "Διδάσκοντας τμήματος τάξης",
  "description":"Διδάσκοντες που συμμετέχουν στη διδασκαλία τμήματος τάξης ενός μαθήματος",
  "hidden": false,
  "sealed": false,
  "version": "0.1",
  "fields": [
    {
      "name": "id",
      "title": "Id",
      "description": "Id",
      "type": "Text",
      "nullable": false,
      "size": 36,
      "primary": true,
      "readonly": true
    },
    {
      "name": "courseClass",
      "title": "Διδασκαλία μαθήματος",
      "description": "Course Class - Διδασκαλία μαθήματος",
      "type": "CourseClass",
      "nullable": false,
      "editable": false
    },
    {
      "name": "instructor",
      "title": "Διδάσκων",
      "description": "Ο διδάσκων του τμήματος της τάξης",
      "type": "Instructor",
      "nullable": false,
      "editable": false
    },
    {
      "name": "section",
      "title": "Τμήμα τάξης",
      "description": "Το τμήμα της τάξης",
      "type": "CourseClassSection"
    }
  ],
  "privileges": [
    {
      "mask": 1,
      "type": "global",
      "account": "Students"
    },
    {
      "mask": 1,
      "type": "global",
      "account": "Instructors"
    },
    {
      "mask": 15,
      "type": "global"
    },
    {
      "mask": 15,
      "type": "global",
      "account": "Administrators"
    },
    {
      "mask": 15,
      "type": "self",
      "account": "Registrar",
      "filter": "courseClass/course/department eq departments()"
    }
  ]
}
