{
  "$schema": "https://themost-framework.github.io/themost/models/2018/2/schema.json",
  "@id": "https://universis.io/entities/CourseTypeLocale",
  "name": "ExamPeriodLocale",
  "description": "Contains a collection of extra field required for course types.",
  "title": "ExamPeriodLocale",
  "abstract": false,
  "contains": "ExamPeriod",
  "hidden": true,
  "sealed": false,
  "version": "1.0",
  "fields": [
    {
      "@id": "https://themost.io/schemas/id",
      "name": "id",
      "title": "ID",
      "description": "The identifier of the item.",
      "type": "Counter",
      "primary": true,
      "nullable": false
    },
    {
      "@id": "https://themost.io/schemas/object",
      "name": "object",
      "title": "object",
      "description": "The parent item.",
      "type": "ExamPeriod"
    },
    {
      "@id": "http://schema.org/inLanguage",
      "name": "inLanguage",
      "title": "inLanguage",
      "description": "The language of this item.",
      "type": "Text",
      "size": 5
    },
    {
      "name": "name",
      "title": "Ονομασία",
      "description": "Η ονομασία της εξεταστικής",
      "type": "Text",
      "nullable": true,
      "size": 50
    },
    {
      "name": "alternateName",
      "title": "Εναλλακτική ονομασία",
      "description": "Εναλλακτική ονομασία",
      "type": "Text",
      "nullable": true,
      "size": 50
    }
  ],
  "constraints": [
    {
      "type": "unique",
      "fields": [
        "object", "inLanguage"
      ]

    }
  ],
  "privileges": [
    {
      "mask": 1,
      "type": "global",
      "account": "*"
    },
    {
      "mask": 15,
      "type": "global"
    },
    {
      "mask": 15,
      "type": "global",
      "account": "Administrators"
    }
  ]
}
