{
  "name": "GroupMembers",
  "title": "Group Members",
  "@id": "https/themost.io/GroupMembers",
  "source": "GroupMembers",
  "view": "GroupMembers",
  "version": "1.0",
  "hidden": false,
  "fields": [
    {
      "name": "id",
      "type": "Counter",
      "primary": true
    },
    {
      "name": "parentId",
      "indexed": true,
      "nullable": false,
      "type": "Integer"
    },
    {
      "name": "valueId",
      "indexed": true,
      "nullable": false,
      "type": "Integer"
    }
  ],
  "constraints": [
    {
      "type": "unique",
      "fields": [
        "parentId",
        "valueId"
      ]
    }
  ],
  "privileges": [
    {
      "mask": 15,
      "type": "global",
      "account": "Administrators"
    },
    {
      "mask": 1,
      "type": "self",
      "filter": "valueId eq me()"
    }
  ]
}
