{
  "$schema": "https://themost-framework.github.io/themost/models/2018/2/schema.json",
  "@id": "https://universis.io/schemas/Nationality",
  "name": "Nationality",
  "title": "Υπηκοότητα",
  "hidden": false,
  "sealed": false,
  "version": "0.1",
  "source": "NationalityBase",
  "view": "NationalityBase",
  "category": "lookup",
  "fields": [
    {
      "name": "id",
      "title": "Id",
      "description": "Id",
      "type": "Integer",
      "nullable": false,
      "size": 4,
      "primary": true
    },
    {
      "name": "name",
      "title": "Ονομασία",
      "description": "Η ονομασία της υπηκοότητας.",
      "type": "Text",
      "nullable": false,
      "size": 100
    }
  ],
  "privileges": [
    {
      "mask": 1,
      "type": "global",
      "account": "*"
    },
    {
      "mask": 15,
      "type": "global"
    },
    {
      "mask": 15,
      "type": "global",
      "account": "Administrators"
    }
  ],
  "eventListeners": [
    {
      "name": "Lookup Cache Listener",
      "type": "./listeners/lookup-cache-listener.js"
    }
  ]
}
