{
  "$schema": "https://themost-framework.github.io/themost/models/2018/2/schema.json",
  "@id": "https://universis.io/schemas/ProgramGroup",
  "name": "ProgramGroup",
  "title": "Program Groups",
  "hidden": false,
  "sealed": false,
  "version": "0.5",
  "source": "ProgramGroupBase",
  "view": "ProgramGroupData",
  "fields": [
    {
      "name": "id",
      "title": "Κωδικός ομάδας προγράμματος σπουδών",
      "description": "Κωδικός ομάδας προγράμματος σπουδών",
      "type": "Integer",
      "nullable": false,
      "primary": true,
      "size": 4,
      "value": "javascript:return this.newid();"
    },
    {
      "name": "program",
      "title": "Κωδικός προγράμματος σπουδών",
      "description": "Κωδικός προγράμματος σπουδών",
      "type": "StudyProgram",
      "nullable": false,
      "editable": false
    },
    {
      "name": "groupType",
      "title": "Group Type",
      "description": "The type of the item.",
      "type": "ProgramGroupType",
      "nullable": false,
      "editable": false
    },
    {
      "name": "parentGroup",
      "title": "Πατρική ομάδα",
      "description": "Κωδικός πατρικής ομάδας",
      "type": "ProgramGroup",
      "nullable": true
    },
    {
      "name": "displayCode",
      "title": "Κωδικός εμφάνισης",
      "description": "Κωδικός εμφάνισης",
      "type": "Text",
      "nullable": false,
      "size": 15
    },
    {
      "name": "name",
      "title": "Ονομασία ομάδας",
      "description": "Ονομασία ομάδας",
      "type": "Text",
      "nullable": false,
      "size": 150
    },
    {
      "name": "description",
      "title": "Περιγραφή",
      "description": "Περιγραφή",
      "type": "Text",
      "nullable": true,
      "size": 150
    },
    {
      "name": "isCalculated",
      "title": "Ομαδικός βαθμός",
      "description": "Υπολογίζεται ομαδικός βαθμός",
      "type": "Boolean",
      "nullable": true,
      "editable": true,
      "calculation": "javascript:return this.convertStrictBoolean(this.target,'isCalculated');"
    },
    {
      "name": "gradeScale",
      "title": "Κωδικός κλίμακας βαθμολογίας",
      "description": "Κωδικός κλίμακας βαθμολογίας",
      "type": "GradeScale",
      "nullable": true,
      "size": 4
    },
    {
      "name": "units",
      "title": "Διδακτικές μονάδες",
      "description": "Διδακτικές μονάδες",
      "type": "Number",
      "value": "javascript:return 1;"
    },
    {
      "name": "comments",
      "title": "Σχόλια",
      "description": "Σχόλια",
      "type": "Text"
    },
    {
      "name": "coefficient",
      "title": "Συντελεστής πτυχίου",
      "description": "Συντελεστής πτυχίου",
      "type": "Number",
      "value": "javascript:return 1;"
    },
    {
      "name": "semester",
      "title": "Εξάμηνο",
      "description": "Εξάμηνο",
      "type": "Semester",
      "value": "javascript:return 1;"
    },
    {
      "name": "courseType",
      "title": "Τύπος μαθήματος",
      "description": "Τύπος μαθήματος",
      "type": "CourseType",
      "nullable": true,
      "expandable": true
    },
    {
      "name": "minCourses",
      "title": "Ελάχιστος αριθμός μαθημάτων",
      "description": "Ελάχιστος αριθμός μαθημάτων",
      "type": "Integer",
      "nullable": true,
      "size": 4
    },
    {
      "name": "maxCourses",
      "title": "Μέγιστος αριθμός μαθημάτων",
      "description": "Μέγιστος αριθμός μαθημάτων",
      "type": "Integer",
      "nullable": true,
      "size": 4
    },
    {
      "name": "ects",
      "title": "Μονάδες ECTS",
      "description": "Μονάδες ECTS",
      "type": "Number",
      "nullable": true,
      "size": 4
    },
    {
      "name": "notes",
      "title": "Σημειώσεις",
      "description": "Σημειώσεις",
      "type": "Text",
      "nullable": true,
      "size": 100,
      "many": false
    },
    {
      "name": "dgDepartments",
      "title": "Program Group Departments",
      "description": "Program Group Departments",
      "type": "Text",
      "nullable": true,
      "size": 255
    },
    {
      "name": "dgAreas",
      "title": "Program Group Areas",
      "description": "Program Group Areas",
      "type": "Text",
      "nullable": true,
      "size": 255
    },
    {
      "name": "isActive",
      "title": "Ενεργό (ΝΑΙ/ΟΧΙ)",
      "description": "Ενεργό (ΝΑΙ/ΟΧΙ)",
      "type": "Boolean",
      "nullable": true,
      "calculation": "javascript:return this.convertStrictBoolean(this.target,'isActive');"
    },
    {
      "name": "availableInExams",
      "title": "Διαθέσιμη στα εξάμηνα",
      "description": "Διαθέσιμη στα εξάμηνα",
      "type": "Integer",
      "nullable": true
    },
    {
      "name": "nameEn",
      "title": "nameEn",
      "description": "nameEn",
      "type": "Text",
      "nullable": true,
      "size": 150
    },
    {
      "name": "dateModified",
      "title": "Ημερομηνία τελευταίας τροποποίησης",
      "description": "Ημερομηνία τελευταίας τροποποίησης",
      "type": "DateTime",
      "nullable": false,
      "value": "javascript:return new Date();",
      "calculation": "javascript:return this.now();"
    }
  ],
  "eventListeners": [
    {
      "type": "@themost/data/previous-state-listener"
    },
    {
      "type": "./listeners/program-group-listener"
    }
  ],
  "privileges": [
    {
      "mask": 1,
      "type": "global",
      "account": "*"
    },
    {
      "mask": 15,
      "type": "global"
    },
    {
      "mask": 15,
      "type": "global",
      "account": "Administrators"
    },
    {
      "mask": 15,
      "type": "self",
      "account": "Registrar",
      "filter": "program/department eq departments()"
    }
  ]
}
