{
  "$schema": "https://themost-framework.github.io/themost/models/2018/2/schema.json",
  "@id": "https://universis.io/entities/StudyProgramSpecialtyLocale",
  "name": "StudyProgramSpecialtyLocale",
  "description": "Contains a collection of extra field required for study programs.",
  "title": "StudyProgramSpecialtyLocale",
  "abstract": false,
  "contains": "StudyProgramSpecialty",
  "hidden": true,
  "sealed": false,
  "version": "1.0",
  "fields": [
    {
      "@id": "https://themost.io/schemas/id",
      "name": "id",
      "title": "ID",
      "description": "The identifier of the item.",
      "type": "Counter",
      "primary": true,
      "nullable": false
    },
    {
      "@id": "https://themost.io/schemas/object",
      "name": "object",
      "title": "object",
      "description": "The parent item.",
      "type": "StudyProgramSpecialty"
    },
    {
      "@id": "http://schema.org/inLanguage",
      "name": "inLanguage",
      "title": "inLanguage",
      "description": "The language of this item.",
      "type": "Text",
      "size": 5
    },
    {
      "name": "name",
      "title": "Περιγραφή",
      "description": "Μία σύντομη περιγραφή για την κατεύθυνση",
      "type": "Text",
      "nullable": true,
      "size": 150
    },
    {
      "name": "abbreviation",
      "title": "Συντομογραφία",
      "description": "Η συντομογραφία της κατεύθυνσης",
      "type": "Text",
      "nullable": true,
      "size": 20
    }
  ],
  "constraints": [
    {
      "type": "unique",
      "fields": [
        "object", "inLanguage"
      ]

    }
  ],
  "privileges": [
    {
      "mask": 15,
      "type": "global"
    },
    {
      "mask": 1,
      "type": "global",
      "account": "*"
    },
    {
      "mask": 15,
      "type": "self",
      "account": "Registrar",
      "filter": "object/studyProgram/department eq departments()"
    },
    {
      "mask": 15,
      "type": "global",
      "account": "Administrators"
    }
  ]
}
