{
  "$schema": "https://themost-framework.github.io/themost/models/2018/2/schema.json",
  "@id": "https://universis.io/schemas/Student",
  "name": "Student",
  "title": "Φοιτητές",
  "description": "Στοιχεία φοίτησης ενός προσώπου σε ένα πρόγραμμα σπουδών",
  "hidden": false,
  "sealed": false,
  "version": "0.4",
  "source": "StudentBase",
  "view": "StudentData",
  "fields": [
    {
      "name": "id",
      "title": "Κωδικός",
      "description": "Ο κωδικός της εγγραφής",
      "type": "Integer",
      "nullable": false,
      "size": 4,
      "primary": true,
      "value": "javascript:return this.newid();"
    },
    {
      "name": "person",
      "title": "Επαφή",
      "description": "Ο κωδικός της επαφής",
      "type": "Person",
      "nested": true,
      "many": false,
      "expandable": true,
      "nullable": false,
      "editable": false
    },
    {
      "name": "studentIdentifier",
      "title": "Αριθμός μητρώου φοιτητή",
      "description": "Αριθμός μητρώου φοιτητή",
      "type": "Text",
      "nullable": true,
      "size": 40
    },
    {
      "name": "studentInstituteIdentifier",
      "title": "Αριθμός γενικού μητρώου φοιτητή",
      "description": "Αριθμός γενικού μητρώου φοιτητή",
      "type": "Text",
      "nullable": true,
      "size": 40
    },
    {
      "name": "department",
      "title": "Τμήμα",
      "description": "Το τμήμα που ανήκει ο φοιτητής",
      "type": "Department",
      "nullable": false,
      "editable": false
    },
    {
      "name": "studyProgram",
      "title": "Πρόγραμμα σπουδών",
      "description": "Το πρόγραμμα σπουδών που ακολουθεί ο φοιτητής.",
      "type": "StudyProgram",
      "nullable": false
    },
    {
      "name": "studyProgramSpecialty",
      "title": "Κατεύθυνση",
      "description": "Η κατεύθυνση του προγράμματος σπουδών που ακολουθεί ο φοιτητής.",
      "type": "StudyProgramSpecialty",
      "nullable": false,
      "readonly": true
    },
    {
      "name": "studentStatus",
      "title": "Κατάσταση",
      "description": "Η κατάσταση του φοιτητή",
      "type": "StudentStatus",
      "expandable": true,
      "nullable": false,
      "mapping": {
        "parentModel": "StudentStatus",
        "childModel": "Student",
        "parentField": "identifier",
        "childField": "studentStatus",
        "associationType": "association"
      }
    },
    {
      "name": "semester",
      "title": "Εξάμηνο",
      "description": "Το τρέχον εξάμηνο του φοιτητή",
      "type": "Integer",
      "nullable": false
    },
    {
      "name": "schoolGraduated",
      "title": "Σχολείο αποφοίτησης",
      "description": "Σχολείο αποφοίτησης",
      "type": "Text",
      "nullable": true,
      "size": 200
    },
    {
      "name": "schoolGraduatedYear",
      "title": "Σχολικό έτος αποφοίτησες",
      "description": "Σχολικό έτος αποφοίτησες",
      "type": "Integer"
    },
    {
      "name": "inscriptionNumber",
      "title": "Αριθμός δελτίου επιτυχίας",
      "description": "Αριθμός δελτίου επιτυχίας",
      "type": "Text",
      "size": 50,
      "nullable": true
    },
    {
      "name": "schoolGraduationNumber",
      "title": "Αριθμός απολυτηρίου",
      "description": "Αριθμός απολυτηρίου",
      "type": "Text",
      "nullable": true,
      "size": 40
    },
    {
      "name": "inscriptionIndex",
      "title": "Αριθμός σειράς εισαγωγής",
      "description": "Αριθμός σειράς εισαγωής",
      "type": "Integer",
      "nullable": true,
      "size": 4
    },
    {
      "name": "schoolGraduationGrade",
      "title": "Βαθμός απολυτηρίου",
      "description": "Βαθμός απολυτηρίου",
      "type": "Text",
      "nullable": true,
      "size": 16
    },
    {
      "name": "inscriptionDate",
      "title": "Ημερομηνία εισαγωγής",
      "description": "Ημερομηνία εισαγωγής",
      "type": "DateTime",
      "nullable": false
    },
    {
      "name": "inscriptionSemester",
      "title": "Εξάμηνο εισαγωγής",
      "description": "Εξάμηνο εισαγωγής",
      "type": "Semester",
      "expandable": true,
      "nullable": false
    },
    {
      "name": "inscriptionPeriod",
      "title": "Περίοδος εισαγωγής",
      "description": "Περίοδος εισαγωγής",
      "type": "AcademicPeriod",
      "expandable": true,
      "nullable": false
    },
    {
      "name": "inscriptionYear",
      "title": "Ακαδημαϊκό έτος εισαγωγής",
      "description": "Ακαδημαϊκό έτος εισαγωγής",
      "type": "AcademicYear",
      "expandable": true,
      "nullable": false
    },
    {
      "name": "inscriptionMode",
      "title": "Τρόπος εισαγωγής",
      "description": "Τρόπος εισαγωγής",
      "type": "InscriptionMode",
      "expandable": true,
      "nullable": false
    },
    {
      "name": "inscriptionDepartment",
      "title": "Τμήμα προέλευσης",
      "description": "Τμήμα προέλευσης",
      "type": "Text",
      "nullable": true,
      "size": 300
    },
    {
      "name": "inscriptionComments",
      "title": "Σχόλια εισαγωγής",
      "description": "Σχόλια εισαγωγής",
      "type": "Text",
      "nullable": true,
      "size": 1024
    },
    {
      "name": "inscriptionDecision",
      "title": "Αριθμός απόφασης εισαγωγής",
      "description": "Αριθμός απόφασης εισαγωγής",
      "type": "Text",
      "nullable": true,
      "size": 60
    },
    {
      "name": "inscriptionRetroYear",
      "title": "Αναδρομικό έτος εισαγωγής",
      "description": "Αναδρομικό έτος εισαγωγής",
      "type": "AcademicYear",
      "expandable": true
    },
    {
      "name": "inscriptionRetroPeriod",
      "title": "Αναδρομική περίοδος εισαγωγής",
      "description": "Αναδρομική περίοδος εισαγωγής",
      "type": "AcademicPeriod",
      "expandable": true
    },
    {
      "name": "inscriptionPoints",
      "title": "Μόρια εισαγωγής",
      "description": "Μόρια εισαγωγής",
      "type": "Number"
    },
    {
      "name": "inscriptionModeCategory",
      "title": "Χαρακτηρισμός τρόπου εισαγωγής",
      "description": "Χαρακτηρισμός τρόπου εισαγωγής",
      "type": "InscriptionModeCategory"
    },
    {
      "name": "declaredDate",
      "title": "Ημερομηνία ανακήρυξης",
      "description": "Ημερομηνία ανακήρυξης",
      "type": "DateTime"
    },
    {
      "name": "graduationDate",
      "title": "Ημερομηνία ορκωμοσίας",
      "description": "Ημερομηνία ορκωμοσίας",
      "type": "DateTime",
      "nullable": true,
      "size": 4
    },
    {
      "name": "graduationPeriod",
      "title": "Περίοδος ορκωμοσίας",
      "description": "Περίοδος ορκωμοσίας",
      "type": "AcademicPeriod",
      "nullable": true,
      "expandable": true
    },
    {
      "name": "graduationYear",
      "title": "Ακαδημαϊκό έτος ορκωμοσίας",
      "description": "Ακαδημαϊκό έτος ορκωμοσίας",
      "type": "AcademicYear",
      "expandable": true
    },
    {
      "name": "graduationGrade",
      "title": "Βαθμός πτυχίου (0-1)",
      "description": "Βαθμός πτυχίου (0-1)",
      "type": "Number",
      "nullable": true,
      "size": 8
    },
    {
      "name": "graduationTitle",
      "title": "Τίτλος πτυχίου",
      "description": "Τίτλος πτυχίου",
      "type": "Text",
      "nullable": true,
      "size": 150
    },
    {
      "name": "graduationGradeWrittenInWords",
      "title": "Βαθμός πτυχίου ολογράφως",
      "description": "Βαθμός πτυχίου ολογράφως",
      "type": "Text",
      "nullable": true,
      "size": 50
    },
    {
      "name": "graduationNumber",
      "title": "Αριθμός πτυχίου",
      "description": "Αριθμός πτυχίου",
      "type": "Text",
      "nullable": true,
      "size": 20
    },
    {
      "name": "graduationGradeScale",
      "title": "Κλίμακα βαθμού πτυχίου",
      "description": "Κλίμακα βαθμού πτυχίου",
      "type": "GradeScale",
      "nullable": true
    },
    {
      "name": "graduationGradeAdjusted",
      "title": "Βαθμός πτυχίου (ανηγμένος στην κλίμακα)",
      "description": "Βαθμός πτυχίου (ανηγμένος στην κλίμακα)",
      "type": "Text",
      "nullable": true,
      "size": 15
    },
    {
      "name": "lastObligationDate",
      "title": "Ημερομηνία τελευταίας υποχρέωσης",
      "description": "Ημερομηνία τελευταίας υποχρέωσης",
      "type": "DateTime",
      "nullable": true,
      "size": 4
    },
    {
      "name": "graduationType",
      "title": "Τύπος ορκωμοσίας (Ορκωμοσία/Διαβεβαίωση)",
      "description": "Τύπος ορκωμοσίας (Ορκωμοσία/Διαβεβαίωση)",
      "type": "Text",
      "size": 2
    },
    {
      "name": "graduationRankByInscriptionYear",
      "title": "Ποσοστιαία βαθμολογία ανά έτος εισαγωγής",
      "description": "Ποσοστιαία βαθμολογία ανά έτος εισαγωγής",
      "type": "Number",
      "size": 4
    },
    {
      "name": "graduationRankByGraduationYear",
      "title": "Ποσοστιαία βαθμολογία ανά έτος ορκωμοσίας",
      "description": "Ποσοστιαία βαθμολογία ανά έτος ορκωμοσίας",
      "type": "Number",
      "nullable": true,
      "size": 4
    },
    {
      "name": "removalDate",
      "title": "Ημερομηνία διαγραφής",
      "description": "Ημερομηνία διαγραφής",
      "type": "DateTime",
      "nullable": true
    },
    {
      "name": "removalPeriod",
      "title": "Περίοδος διαγραφής",
      "description": "Περίοδος διαγραφής",
      "type": "AcademicPeriod",
      "expandable": true
    },
    {
      "name": "removalYear",
      "title": "Ακαδημαϊκό έτος διαγραφής",
      "description": "Ακαδημαϊκό έτος διαγραφής",
      "type": "AcademicYear",
      "expandable": true
    },
    {
      "name": "removalRequest",
      "title": "Αίτητη διαγραφής",
      "description": "Αίτητη διαγραφής",
      "type": "Text",
      "nullable": true,
      "size": 30
    },
    {
      "name": "removalReason",
      "title": "Λόγος διαγραφής",
      "description": "Λόγος διαγραφής",
      "type": "Text",
      "nullable": true,
      "size": 70
    },
    {
      "name": "removalDecision",
      "title": "Αριθμός απόφασης διαγραφής",
      "description": "Αριθμός απόφασης διαγραφής",
      "type": "Text",
      "nullable": true,
      "size": 30
    },
    {
      "name": "removalDepartment",
      "title": "Τμήμα προορισμού",
      "description": "Τμήμα προορισμού",
      "type": "Text",
      "nullable": true,
      "size": 70
    },
    {
      "name": "removalNumber",
      "title": "Αριθμός διαγραφής",
      "description": "Αριθμός διαγραφής",
      "type": "Text",
      "nullable": true,
      "size": 20
    },
    {
      "name": "removalComments",
      "title": "Σχόλια διαγραφής",
      "description": "Σχόλια διαγραφής",
      "type": "Text",
      "nullable": true,
      "size": 1024
    },
    {
      "name": "comments",
      "title": "Σχόλια",
      "description": "Σχόλια",
      "type": "Note",
      "many": false,
      "nullable": true
    },
    {
      "name": "militaryStatus",
      "title": "Στρατιωτικές υποχρεώσεις",
      "description": "Στρατιωτικές υποχρεώσεις",
      "type": "MilitaryStatus"
    },
    {
      "name": "category",
      "title": "Κατηγορία φοιτητή",
      "description": "Κατηγορία φοιτητή",
      "type": "StudentCategory",
      "expandable": true
    },
    {
      "name": "specialtyModifiedDate",
      "title": "Ημερομηνία αλλαγής κατεύθυνσης",
      "description": "Ημερομηνία αλλαγής κατεύθυνσης",
      "type": "DateTime",
      "nullable": true,
      "size": 4
    },
    {
      "name": "uniqueIdentifier",
      "title": "Μοναδικός κωδικός φοιτητή",
      "description": "Μοναδικός κωδικός φοιτητή",
      "type": "Text",
      "nullable": true,
      "size": 36
    },
    {
      "name": "dateModified",
      "title": "Ημερομηνία τελευταίας τροποποίησης",
      "description": "Ημερομηνία τελευταίας τροποποίησης",
      "type": "DateTime",
      "nullable": false,
      "value": "javascript:return new Date();",
      "calculation": "javascript:return this.now();"
    },
    {
      "name": "rate",
      "title": "Δείκτης προόδου",
      "description": "Δείκτης προόδου",
      "type": "Number",
      "nullable": true,
      "size": 8
    },
    {
      "name": "user",
      "property": "user",
      "title": "Χρήστης",
      "description": "Ο συνδεδεμένος χρήστης",
      "type": "User",
      "nullable": true
    },
    {
      "name": "registrations",
      "title": "Student Registrations",
      "description": "Student Registrations",
      "type": "StudentPeriodRegistration",
      "many": true,
      "mapping": {
        "parentModel": "Student",
        "childModel": "StudentPeriodRegistration",
        "parentField": "id",
        "childField": "student",
        "cascade": "none",
        "associationType": "association"
      }
    },
    {
      "name": "specialty",
      "title": "Κατεύθυνση προγράμματος σπουδών",
      "description": "Κατεύθυνση προγράμματος σπουδών (περιγραφή)",
      "type": "Text",
      "readonly": true
    },
    {
      "name": "specialtyId",
      "title": "Κωδικός κατεύθυνσης",
      "description": "Κωδικός κατεύθυνσης προγράμματος σπουδών",
      "type": "Integer",
      "readonly": false,
      "nullable": false
    },
    {
      "name": "customField1",
      "title": "Custom field 1",
      "description": "Custom field 1",
      "type": "Text",
      "nullable": true,
      "size": 255
    },
    {
      "name": "customField2",
      "title": "Custom field 2",
      "description": "Custom field 2",
      "type": "Text",
      "nullable": true,
      "size": 255
    },
    {
      "name": "customField3",
      "title": "Custom field 3",
      "description": "Custom field 3",
      "type": "Text",
      "nullable": true,
      "size": 255
    },
    {
      "name": "customField4",
      "title": "Custom field 4",
      "description": "Custom field 4",
      "type": "Text",
      "nullable": true,
      "size": 255
    },
    {
      "name": "customField5",
      "title": "Custom field 5",
      "description": "Custom field 5",
      "type": "Text",
      "nullable": true,
      "size": 255
    },
    {
      "name": "graduationEvent",
      "title": "Student graduation events",
      "description": "A collection of graduation events.",
      "type": "GraduationEvent",
      "multiplicity": "ZeroOrOne",
      "mapping": {
        "associationAdapter": "GraduationEventStudents",
        "parentModel": "Student",
        "parentField": "id",
        "childModel": "GraduationEvent",
        "childField": "id",
        "associationType": "junction",
        "cascade": "delete",
        "associationObjectField": "student",
        "associationValueField": "graduationEvent",
        "privileges": [
          {
            "mask":15,
            "type": "global"
          },
          {
            "mask": 15,
            "type": "global",
            "account": "Administrators"
          },
          {
            "mask": 15,
            "type": "self",
            "account": "Registrar",
            "filter": "student/department eq departments()"
          }
        ]
      }
    },
    {
      "name": "documents",
      "title": "Student Documents",
      "type": "DocumentNumberSeriesItem",
      "mapping": {
        "associationType": "junction",
        "associationAdapter": "StudentDocuments",
        "parentModel": "Student",
        "parentField": "id",
        "childModel": "DocumentNumberSeriesItem",
        "childField": "id",
        "cascade": "delete",
        "associationObjectField": "student",
        "associationValueField": "document"
      }
    },
    {
      "name": "departmentSnapshot",
      "title": "Related department snapshot",
      "description": "Related department snapshot.",
      "type": "DepartmentSnapshot",
      "multiplicity": "ZeroOrOne",
      "mapping": {
        "associationAdapter": "DepartmentSnapshotStudents",
        "parentModel": "Student",
        "parentField": "id",
        "childModel": "DepartmentSnapshot",
        "childField": "id",
        "associationType": "junction",
        "cascade": "delete",
        "associationObjectField": "student",
        "associationValueField": "DepartmentSnapshot",
        "privileges": [
          {
            "mask":15,
            "type": "global"
          },
          {
            "mask": 15,
            "type": "global",
            "account": "Administrators"
          },
          {
            "mask": 15,
            "type": "self",
            "account": "Registrar",
            "filter": "student/department eq departments()"
          }
        ]
      }
    },
    {
      "name": "attachments",
      "type": "Attachment",
      "mapping": {
        "cascade": "delete",
        "associationType": "junction",
        "associationAdapter": "StudentAttachments",
        "parentModel": "Student",
        "parentField": "id",
        "childModel": "Attachment",
        "childField": "id",
        "associationObjectField": "student",
        "associationValueField": "attachment"
      }
    }
  ],
  "privileges": [
    {
      "mask": 1,
      "type": "self",
      "filter": "id eq student()",
      "account": "Students"
    },
    {
      "mask": 15,
      "type": "global",
      "account": "Administrators"
    },
    {
      "mask": 15,
      "type": "global"
    },
    {
      "mask": 16,
      "type": "global"
    },
    {
      "mask": 15,
      "type": "self",
      "account": "Registrar",
      "filter": "department eq departments()"
    }
  ],
  "eventListeners": [
    {
      "type": "@themost/data/previous-state-listener"
    },
    {
      "type": "./listeners/student-update-listener"
    }
    ],
  "views": [
    {
      "name": "StudentSummary",
      "description": "Student Summary View",
      "fields": [
        {
          "name": "id"
        },
        {
          "name": "studentIdentifier"
        },
        {
          "name": "uniqueIdentifier"
        },
        {
          "name": "department"
        },
        {
          "name": "person/familyName",
          "property": "familyName"
        },
        {
          "name": "person/givenName",
          "property": "givenName"
        },
        {
          "name": "person/fatherName",
          "property": "fatherName"
        },
        {
          "name": "inscriptionYear"
        },
        {
          "name": "inscriptionPeriod"
        },
        {
          "name": "studentStatus"
        },
        {
          "name": "semester"
        },
        {
          "name": "studyProgram"
        }
      ],
      "privileges": [
        {
          "mask": 1,
          "type": "global",
          "account": "Instructors"
        },
        {
          "mask": 1,
          "type": "global",
          "account": "Administrators"
        },
        {
          "mask": 1,
          "type": "self",
          "account": "Registrar",
          "filter": "department eq departments()"
        }
      ]
    }
  ]
}
